0/9
#instructions
0 1 do 0 1 1
0 x do 1 x 1
0 * do 0 * 1
1 1 do 2 a 1
2 1 do 2 1 -1
2 x do 3 x -1
2 = do 2 = -1
2 a do 2 a -1
3 1 do 4 a 1
3 a do 3 a -1
3 * do 6 * 1
4 1 do 4 1 1
4 x do 4 x 1
4 = do 4 = 1
4 a do 4 a 1
4 * do 5 1 1
5 _ do 2 * -1
6 x do 7 x 1
6 a do 6 1 1
7 1 do 2 a 1
7 = do 8 = -1
7 a do 7 a 1
8 x do 9 x 0
8 a do 8 1 -1